\relax 
\@writefile{toc}{\contentsline {section}{\numberline {1}Introduction}{10}}
\newlabel{introduction}{{1}{10}}
\@writefile{toc}{\contentsline {subsection}{\numberline {1.1}Motivation}{10}}
\@writefile{toc}{\contentsline {subsection}{\numberline {1.2}Objectives of the Thesis}{10}}
\@writefile{toc}{\contentsline {subsection}{\numberline {1.3}Organization of the Thesis}{11}}
\@writefile{toc}{\contentsline {section}{\numberline {2}Related Work}{11}}
\@writefile{toc}{\contentsline {subsection}{\numberline {2.1}Co-relation base feature selection with Clustering}{11}}
\@writefile{toc}{\contentsline {subsubsection}{\numberline {2.1.1}Decision Tree}{11}}
\citation{priyadarshini2018decision}
\citation{sultana2018sophisticated}
\citation{lango2018multi}
\citation{lango2018multi}
\@writefile{lof}{\contentsline {figure}{\numberline {1}{\ignorespaces Full Dataset Accuracy vs. Co-relation Accuracy for Decision tree (ID3) Algorithm}}{14}}
\@writefile{toc}{\contentsline {subsubsection}{\numberline {2.1.2}Bagging Algorithm}{14}}
\citation{abdallah2018fault}
\citation{jakhar2018predication}
\citation{diaz2006gene}
\@writefile{lof}{\contentsline {figure}{\numberline {2}{\ignorespaces Full Dataset Accuracy vs. Co-relation Accuracy for Bagging Algorithm}}{16}}
\newlabel{fig:boat1}{{2}{16}}
\citation{thiebault2018m2b}
\@writefile{toc}{\contentsline {subsubsection}{\numberline {2.1.3}Random Forest}{17}}
\citation{hamby2008prediction}
\citation{hamby2008prediction}
\citation{khalilia2011predicting}
\citation{khalilia2011predicting}
\citation{jakhar2018predication}
\citation{basha2018impact}
\citation{IJARCCE71.pdf}
\@writefile{lof}{\contentsline {figure}{\numberline {3}{\ignorespaces Full Dataset Accuracy vs. Co-relation Accuracy for Random Forest Algorithm}}{19}}
\newlabel{fig:boat1}{{3}{19}}
\@writefile{toc}{\contentsline {subsubsection}{\numberline {2.1.4}AdaBoost Algorithm}{19}}
\citation{ceylan2018feature}
\@writefile{lof}{\contentsline {figure}{\numberline {4}{\ignorespaces Full Dataset Accuracy vs. Co-relation Accuracy for Decision tree (ID3) Algorithm}}{21}}
\newlabel{fig:boat1}{{4}{21}}
\@writefile{toc}{\contentsline {subsubsection}{\numberline {2.1.5}Voting Algorithm(Svm,C4.5,Logistic Regression)}{21}}
\@writefile{toc}{\contentsline {subsubsection}{\numberline {2.1.6}Logistic Regression}{21}}
\@writefile{lof}{\contentsline {figure}{\numberline {5}{\ignorespaces Full Dataset Accuracy vs. Co-relation Accuracy for Votting Algorithm}}{22}}
\newlabel{fig:boat1}{{5}{22}}
\@writefile{lof}{\contentsline {figure}{\numberline {6}{\ignorespaces Full Dataset Accuracy vs. Co-relation Accuracy for Logistic Regression Algorithm}}{22}}
\newlabel{fig:boat1}{{6}{22}}
\@writefile{lof}{\contentsline {figure}{\numberline {7}{\ignorespaces Full Dataset Accuracy vs. Co-relation Accuracy for Decision tree (CART) Algorithm}}{23}}
\newlabel{fig:boat1}{{7}{23}}
\@writefile{toc}{\contentsline {subsubsection}{\numberline {2.1.7}Decision tree (CART)}{23}}
\@writefile{toc}{\contentsline {subsubsection}{\numberline {2.1.8}SVM algorithm}{23}}
\@writefile{toc}{\contentsline {section}{\numberline {3}Proposed Method}{23}}
\@writefile{toc}{\contentsline {subsection}{\numberline {3.1} Data Preprocessing}{23}}
\@writefile{lof}{\contentsline {figure}{\numberline {8}{\ignorespaces Full Dataset Accuracy vs. Co-relation Accuracy for SVM Algorithm}}{24}}
\newlabel{fig:boat1}{{8}{24}}
\@writefile{lof}{\contentsline {figure}{\numberline {9}{\ignorespaces Data Preprocessing}}{24}}
\newlabel{fig:databaseUserTable}{{9}{24}}
\citation{zeng2015novel}
\citation{maji2011rough}
\citation{zeng2015novel}
\citation{jiang2015relative}
\citation{sebban2002hybrid}
\citation{yan2011correntropy}
\citation{hartigan1972direct}
\@writefile{toc}{\contentsline {subsubsection}{\numberline {3.1.1} Missing Value Handling By k-NN Imputation}{25}}
\@writefile{toc}{\contentsline {subsection}{\numberline {3.2}Co-relation Feature Grouping Method}{25}}
\@writefile{toc}{\contentsline {subsection}{\numberline {3.3}Find Covariance Matrix for Each Sample}{25}}
\@writefile{toc}{\contentsline {subsection}{\numberline {3.4}Clustering of Matrices}{26}}
\@writefile{toc}{\contentsline {subsection}{\numberline {3.5}Random Features from Cluster Group}{26}}
\@writefile{toc}{\contentsline {section}{\numberline {4}Data Set and Comparison of Performance}{27}}
\@writefile{lof}{\contentsline {figure}{\numberline {10}{\ignorespaces Full Dataset Accuracy vs. Co-relation Accuracy for Decision tree (ID3) Algorithm}}{30}}
\@writefile{lof}{\contentsline {figure}{\numberline {11}{\ignorespaces Full Dataset Accuracy vs. Co-relation Accuracy for Bagging Algorithm}}{30}}
\newlabel{fig:boat1}{{11}{30}}
\@writefile{toc}{\contentsline {subsubsection}{\numberline {4.0.1}Decision Tree}{30}}
\@writefile{toc}{\contentsline {subsubsection}{\numberline {4.0.2}Bagging Algorithm}{30}}
\@writefile{lof}{\contentsline {figure}{\numberline {12}{\ignorespaces Full Dataset Accuracy vs. Co-relation Accuracy for Random Forest Algorithm}}{31}}
\newlabel{fig:boat1}{{12}{31}}
\@writefile{lof}{\contentsline {figure}{\numberline {13}{\ignorespaces Full Dataset Accuracy vs. Co-relation Accuracy for Decision tree (ID3) Algorithm}}{31}}
\newlabel{fig:boat1}{{13}{31}}
\@writefile{toc}{\contentsline {subsubsection}{\numberline {4.0.3}Random Forest}{31}}
\@writefile{toc}{\contentsline {subsubsection}{\numberline {4.0.4}AdaBoost Algorithm}{31}}
\@writefile{lof}{\contentsline {figure}{\numberline {14}{\ignorespaces Full Dataset Accuracy vs. Co-relation Accuracy for Votting Algorithm}}{32}}
\newlabel{fig:boat1}{{14}{32}}
\@writefile{lof}{\contentsline {figure}{\numberline {15}{\ignorespaces Full Dataset Accuracy vs. Co-relation Accuracy for Logistic Regression Algorithm}}{32}}
\newlabel{fig:boat1}{{15}{32}}
\@writefile{toc}{\contentsline {subsubsection}{\numberline {4.0.5}Voting Algorithm(Svm,C4.5,Logistic Regression)}{32}}
\@writefile{toc}{\contentsline {subsubsection}{\numberline {4.0.6}Logistic Regression}{32}}
\bibdata{sam}
\bibcite{priyadarshini2018decision}{1}
\@writefile{lof}{\contentsline {figure}{\numberline {16}{\ignorespaces Full Dataset Accuracy vs. Co-relation Accuracy for Decision tree (CART) Algorithm}}{33}}
\newlabel{fig:boat1}{{16}{33}}
\@writefile{lof}{\contentsline {figure}{\numberline {17}{\ignorespaces Full Dataset Accuracy vs. Co-relation Accuracy for SVM Algorithm}}{33}}
\newlabel{fig:boat1}{{17}{33}}
\@writefile{toc}{\contentsline {subsubsection}{\numberline {4.0.7}Decision tree (CART)}{33}}
\@writefile{toc}{\contentsline {subsubsection}{\numberline {4.0.8}SVM algorithm}{33}}
\bibcite{sultana2018sophisticated}{2}
\bibcite{lango2018multi}{3}
\bibcite{abdallah2018fault}{4}
\@writefile{lot}{\contentsline {table}{\numberline {1}{\ignorespaces Accuracy of selected datasets for Decision Tree}}{34}}
\@writefile{lot}{\contentsline {table}{\numberline {2}{\ignorespaces Accuracy of selected datasets for Bagging Algorithm(10 fold)}}{34}}
\@writefile{toc}{\contentsline {section}{\numberline {5}Conclusion}{34}}
\bibcite{jakhar2018predication}{5}
\bibcite{diaz2006gene}{6}
\bibcite{thiebault2018m2b}{7}
\bibcite{hamby2008prediction}{8}
\@writefile{lot}{\contentsline {table}{\numberline {3}{\ignorespaces Accuracy of selected datasets for Ramdom Forest(10 fold) }}{35}}
\@writefile{lot}{\contentsline {table}{\numberline {4}{\ignorespaces Accuracy of selected datasets for AdaBoost Algorithm(10 fold)}}{35}}
\bibcite{khalilia2011predicting}{9}
\bibcite{basha2018impact}{10}
\bibcite{ceylan2018feature}{11}
\bibcite{zeng2015novel}{12}
\@writefile{lot}{\contentsline {table}{\numberline {5}{\ignorespaces Accuracy of selected datasets For Voting Algorithm(10 fold)}}{36}}
\@writefile{lot}{\contentsline {table}{\numberline {6}{\ignorespaces Accuracy of selected datasets for Logistic Regression(10 fold)}}{36}}
\bibcite{maji2011rough}{13}
\bibcite{jiang2015relative}{14}
\bibcite{sebban2002hybrid}{15}
\bibcite{yan2011correntropy}{16}
\@writefile{lot}{\contentsline {table}{\numberline {7}{\ignorespaces Accuracy of selected datasets for Cart Algorithm(10 fold)}}{37}}
\@writefile{lot}{\contentsline {table}{\numberline {8}{\ignorespaces Accuracy of selected datasets for SVM algorithm}}{37}}
\bibcite{hartigan1972direct}{17}
\bibstyle{unsrt}
